si4463.c:12:9:SI4463_WaitCTS	24	static
si4463.c:46:6:SI4463_Reset	16	static
si4463.c:73:8:SI4463_SendCommand	48	dynamic
si4463.c:95:8:SI4463_ReadCommandBuffer	48	dynamic
si4463.c:118:6:SI4463_SendNop	24	static
si4463.c:128:9:SI4463_GetSwCts	40	static
si4463.c:148:8:SI4463_WaitSwCTS	24	static
si4463.c:170:8:SI4463_Init	408	dynamic
si4463.c:213:8:SI4463_VerifyInit	48	static
si4463.c:347:8:SI4463_PowerUp	48	static
si4463.c:368:8:SI4463_GetInterrupts	48	static
si4463.c:423:8:SI4463_ClearInterrupts	40	static
si4463.c:442:8:SI4463_ClearAllInterrupts	24	static
si4463.c:452:8:SI4463_GetPartInfo	24	static
si4463.c:463:8:SI4463_GetChipStatus	40	static
si4463.c:488:8:SI4463_ClearChipStatus	40	static
si4463.c:506:16:SI4463_GetCurrentState	40	static
si4463.c:529:8:SI4463_SetCurrentState	24	static
si4463.c:555:8:SI4463_StartRx	32	static
si4463.c:610:8:SI4463_StartTx	24	static
si4463.c:650:8:SI4463_WriteTxFifo	48	dynamic
si4463.c:665:8:SI4463_ReadRxFifo	56	dynamic
si4463.c:707:9:SI4463_GetTxFifoRemainBytes	40	static
si4463.c:730:9:SI4463_GetRxFifoReceivedBytes	40	static
si4463.c:753:8:SI4463_ClearRxFifo	24	static
si4463.c:764:8:SI4463_ClearTxFifo	24	static
si4463.c:775:8:SI4463_ClearSharedFifo	24	static
si4463.c:786:8:SI4463_Transmit	32	static
si4463.c:808:8:SI4463_Receive	40	static
si4463.c:839:8:SI4463_GetProperty	48	static
si4463.c:871:8:SI4463_SetProperty	40	dynamic
si4463.c:896:8:SI4463_SetSplitFifo	32	static
si4463.c:929:8:SI4463_SetHalfDuplexFifo	32	static
si4463.c:961:10:SI4463_GetBytePosition	32	static
