main.c:98:5:main	8	static
main.c:244:6:SystemClock_Config	72	static
main.c:280:13:MX_SPI1_Init	8	static
main.c:318:13:MX_USART1_UART_Init	8	static
main.c:351:13:MX_GPIO_Init	40	static
main.c:399:9:SI4463_IsCTS	8	static
main.c:411:6:SI4463_WriteRead	32	static
main.c:416:6:SI4463_SetSDN	8	static
main.c:421:6:SI4463_ClearSDN	8	static
main.c:426:6:SI4463_Select	8	static
main.c:431:6:SI4463_Deselect	8	static
main.c:443:6:Error_Handler	4	static
