main.c:83:5:main	16	static
main.c:232:6:SystemClock_Config	72	static
main.c:268:13:MX_SPI1_Init	8	static
main.c:306:13:MX_USART1_UART_Init	8	static
main.c:339:13:MX_GPIO_Init	40	static
main.c:387:9:SI4463_IsCTS	8	static
main.c:399:6:SI4463_WriteRead	32	static
main.c:404:6:SI4463_SetSDN	8	static
main.c:409:6:SI4463_ClearSDN	8	static
main.c:414:6:SI4463_Select	8	static
main.c:419:6:SI4463_Deselect	8	static
main.c:431:6:Error_Handler	4	static
